EESchema Schematic File Version 4
EELAYER 30 0
EELAYER END
$Descr A4 11693 8268
encoding utf-8
Sheet 1 1
Title ""
Date ""
Rev ""
Comp ""
Comment1 ""
Comment2 ""
Comment3 ""
Comment4 ""
$EndDescr
$Comp
L MCU_ST_STM32F0:STM32F042K6Tx U1
U 1 1 6108BEBF
P 2550 2150
F 0 "U1" H 2550 1061 50  0000 C CNN
F 1 "STM32F042K6Tx" H 2550 970 50  0000 C CNN
F 2 "Package_QFP:LQFP-32_7x7mm_P0.8mm" H 2150 1250 50  0001 R CNN
F 3 "http://www.st.com/st-web-ui/static/active/en/resource/technical/document/datasheet/DM00105814.pdf" H 2550 2150 50  0001 C CNN
	1    2550 2150
	1    0    0    -1  
$EndComp
$Comp
L power:GND #PWR0101
U 1 1 6108D615
P 2500 3450
F 0 "#PWR0101" H 2500 3200 50  0001 C CNN
F 1 "GND" H 2505 3277 50  0000 C CNN
F 2 "" H 2500 3450 50  0001 C CNN
F 3 "" H 2500 3450 50  0001 C CNN
	1    2500 3450
	1    0    0    -1  
$EndComp
Wire Wire Line
	2450 3150 2450 3450
Wire Wire Line
	2450 3450 2500 3450
Wire Wire Line
	2550 3150 2550 3450
Wire Wire Line
	2550 3450 2500 3450
Connection ~ 2500 3450
NoConn ~ 3850 3250
NoConn ~ 4250 3050
$Comp
L power:GND #PWR0102
U 1 1 6108F942
P 3950 3350
F 0 "#PWR0102" H 3950 3100 50  0001 C CNN
F 1 "GND" H 3955 3177 50  0000 C CNN
F 2 "" H 3950 3350 50  0001 C CNN
F 3 "" H 3950 3350 50  0001 C CNN
	1    3950 3350
	1    0    0    -1  
$EndComp
$Comp
L Device:C C5
U 1 1 6109160C
P 5250 2850
F 0 "C5" H 5365 2896 50  0000 L CNN
F 1 "0.1uF" H 5365 2805 50  0000 L CNN
F 2 "Capacitor_SMD:C_0603_1608Metric" H 5288 2700 50  0001 C CNN
F 3 "~" H 5250 2850 50  0001 C CNN
	1    5250 2850
	1    0    0    -1  
$EndComp
Wire Wire Line
	4900 3300 4900 2950
Wire Wire Line
	4900 3300 5250 3300
Wire Wire Line
	5250 3300 5250 3000
Connection ~ 4900 3300
Wire Wire Line
	5200 2650 5250 2650
Wire Wire Line
	5250 2650 5250 2700
Wire Wire Line
	5250 2650 5250 2550
Connection ~ 5250 2650
$Comp
L power:+3.3V #PWR0103
U 1 1 6109297C
P 5250 2550
F 0 "#PWR0103" H 5250 2400 50  0001 C CNN
F 1 "+3.3V" H 5265 2723 50  0000 C CNN
F 2 "" H 5250 2550 50  0001 C CNN
F 3 "" H 5250 2550 50  0001 C CNN
	1    5250 2550
	1    0    0    -1  
$EndComp
$Comp
L power:+3.3V #PWR0104
U 1 1 61092E67
P 2550 1150
F 0 "#PWR0104" H 2550 1000 50  0001 C CNN
F 1 "+3.3V" H 2565 1323 50  0000 C CNN
F 2 "" H 2550 1150 50  0001 C CNN
F 3 "" H 2550 1150 50  0001 C CNN
	1    2550 1150
	1    0    0    -1  
$EndComp
Wire Wire Line
	2550 1150 2550 1200
Wire Wire Line
	2550 1200 2650 1200
Wire Wire Line
	2650 1200 2650 1250
Wire Wire Line
	2550 1200 2550 1250
Connection ~ 2550 1200
Wire Wire Line
	2550 1200 2450 1200
Wire Wire Line
	2450 1200 2450 1250
$Comp
L Device:C C2
U 1 1 61094738
P 3650 900
F 0 "C2" H 3600 1250 50  0000 L CNN
F 1 "0.1uF" H 3500 1150 50  0000 L CNN
F 2 "Capacitor_SMD:C_0603_1608Metric" H 3688 750 50  0001 C CNN
F 3 "~" H 3650 900 50  0001 C CNN
	1    3650 900 
	1    0    0    -1  
$EndComp
$Comp
L Device:C C3
U 1 1 61094A97
P 3850 900
F 0 "C3" H 3800 1250 50  0000 L CNN
F 1 "0.1uF" H 3750 1150 50  0000 L CNN
F 2 "Capacitor_SMD:C_0603_1608Metric" H 3888 750 50  0001 C CNN
F 3 "~" H 3850 900 50  0001 C CNN
	1    3850 900 
	1    0    0    -1  
$EndComp
$Comp
L Device:C C4
U 1 1 61094ECF
P 4050 900
F 0 "C4" H 4000 1250 50  0000 L CNN
F 1 "4.7uF" H 4000 1150 50  0000 L CNN
F 2 "Capacitor_SMD:C_0603_1608Metric" H 4088 750 50  0001 C CNN
F 3 "~" H 4050 900 50  0001 C CNN
	1    4050 900 
	1    0    0    -1  
$EndComp
$Comp
L Device:C C1
U 1 1 610941CD
P 3450 900
F 0 "C1" H 3400 1250 50  0000 L CNN
F 1 "0.1uF" H 3250 1150 50  0000 L CNN
F 2 "Capacitor_SMD:C_0603_1608Metric" H 3488 750 50  0001 C CNN
F 3 "~" H 3450 900 50  0001 C CNN
	1    3450 900 
	1    0    0    -1  
$EndComp
Wire Wire Line
	4050 750  3850 750 
Wire Wire Line
	3850 750  3650 750 
Connection ~ 3850 750 
Wire Wire Line
	3650 750  3450 750 
Connection ~ 3650 750 
Wire Wire Line
	3450 750  3200 750 
Connection ~ 3450 750 
Wire Wire Line
	3450 1050 3650 1050
Wire Wire Line
	3650 1050 3850 1050
Connection ~ 3650 1050
Wire Wire Line
	3850 1050 4050 1050
Connection ~ 3850 1050
Wire Wire Line
	3450 1050 3200 1050
Connection ~ 3450 1050
$Comp
L power:GND #PWR0105
U 1 1 6109C3A5
P 3200 1050
F 0 "#PWR0105" H 3200 800 50  0001 C CNN
F 1 "GND" H 3205 877 50  0000 C CNN
F 2 "" H 3200 1050 50  0001 C CNN
F 3 "" H 3200 1050 50  0001 C CNN
	1    3200 1050
	1    0    0    -1  
$EndComp
$Comp
L power:+3.3V #PWR0106
U 1 1 6109C9AA
P 3200 750
F 0 "#PWR0106" H 3200 600 50  0001 C CNN
F 1 "+3.3V" V 3215 878 50  0000 L CNN
F 2 "" H 3200 750 50  0001 C CNN
F 3 "" H 3200 750 50  0001 C CNN
	1    3200 750 
	0    -1   -1   0   
$EndComp
$Comp
L Regulator_Linear:LM3480-3.3 U2
U 1 1 61090D90
P 4900 2650
F 0 "U2" H 4900 2892 50  0000 C CNN
F 1 "LM3480-3.3" H 4900 2801 50  0000 C CNN
F 2 "Package_TO_SOT_SMD:SOT-23" H 4900 2875 50  0001 C CIN
F 3 "http://www.ti.com/lit/ds/symlink/lm3480.pdf" H 4900 2650 50  0001 C CNN
	1    4900 2650
	1    0    0    -1  
$EndComp
$Comp
L Connector_Generic:Conn_01x09 J2
U 1 1 610A6269
P 5850 2000
F 0 "J2" H 5930 2042 50  0000 L CNN
F 1 "Conn_01x09" H 5930 1951 50  0000 L CNN
F 2 "badapt:ps_controller_conn" H 5850 2000 50  0001 C CNN
F 3 "~" H 5850 2000 50  0001 C CNN
	1    5850 2000
	1    0    0    -1  
$EndComp
$Comp
L Device:R_US R1
U 1 1 610AA231
P 5050 1450
F 0 "R1" H 5118 1496 50  0000 L CNN
F 1 "1k" H 5118 1405 50  0000 L CNN
F 2 "Resistor_SMD:R_0603_1608Metric" V 5090 1440 50  0001 C CNN
F 3 "~" H 5050 1450 50  0001 C CNN
	1    5050 1450
	1    0    0    -1  
$EndComp
$Comp
L power:+3.3V #PWR0107
U 1 1 610ACBC2
P 5050 1250
F 0 "#PWR0107" H 5050 1100 50  0001 C CNN
F 1 "+3.3V" H 5065 1423 50  0000 C CNN
F 2 "" H 5050 1250 50  0001 C CNN
F 3 "" H 5050 1250 50  0001 C CNN
	1    5050 1250
	1    0    0    -1  
$EndComp
Wire Wire Line
	5050 1250 5050 1300
Wire Wire Line
	3950 3250 3950 3300
Wire Wire Line
	4250 2650 4600 2650
Wire Wire Line
	3950 3300 4900 3300
Connection ~ 3950 3300
Wire Wire Line
	3950 3300 3950 3350
Wire Wire Line
	5650 1700 5250 1700
Text Label 5250 1700 0    50   ~ 0
COMMAND
Wire Wire Line
	5050 1600 5650 1600
Text Label 5250 1600 0    50   ~ 0
DATA
Wire Wire Line
	2050 2550 1600 2550
Text Label 1600 2550 0    50   ~ 0
DATA
Wire Wire Line
	2050 2650 1600 2650
Text Label 1600 2650 0    50   ~ 0
COMMAND
NoConn ~ 5650 1800
NoConn ~ 5650 2300
Wire Wire Line
	5650 1900 5350 1900
$Comp
L power:GND #PWR0108
U 1 1 610B7A19
P 5350 1900
F 0 "#PWR0108" H 5350 1650 50  0001 C CNN
F 1 "GND" V 5355 1772 50  0000 R CNN
F 2 "" H 5350 1900 50  0001 C CNN
F 3 "" H 5350 1900 50  0001 C CNN
	1    5350 1900
	0    1    1    0   
$EndComp
Wire Wire Line
	5650 2000 5350 2000
$Comp
L power:+3.3V #PWR0109
U 1 1 610B8783
P 5350 2000
F 0 "#PWR0109" H 5350 1850 50  0001 C CNN
F 1 "+3.3V" V 5365 2128 50  0000 L CNN
F 2 "" H 5350 2000 50  0001 C CNN
F 3 "" H 5350 2000 50  0001 C CNN
	1    5350 2000
	0    -1   -1   0   
$EndComp
Wire Wire Line
	5650 2100 5250 2100
Text Label 5250 2100 0    50   ~ 0
CS
Wire Wire Line
	5650 2200 5250 2200
Text Label 5250 2200 0    50   ~ 0
CLK
Wire Wire Line
	5650 2400 5400 2400
Text Label 5400 2400 0    50   ~ 0
ACK
Wire Wire Line
	2050 2350 1600 2350
Text Label 1600 2350 0    50   ~ 0
ACK
Wire Wire Line
	2050 2450 1600 2450
Text Label 1600 2450 0    50   ~ 0
CLK
Wire Wire Line
	3050 2250 3350 2250
Text Label 3350 2250 2    50   ~ 0
CS
$Comp
L Connector_Generic:Conn_01x06 J3
U 1 1 6112C362
P 7050 1450
F 0 "J3" H 7130 1442 50  0000 L CNN
F 1 "Conn_01x06" H 7130 1351 50  0000 L CNN
F 2 "Connector_PinSocket_2.54mm:PinSocket_1x06_P2.54mm_Vertical" H 7050 1450 50  0001 C CNN
F 3 "~" H 7050 1450 50  0001 C CNN
	1    7050 1450
	1    0    0    -1  
$EndComp
NoConn ~ 6850 1250
Wire Wire Line
	6850 1350 6600 1350
Text Label 6600 1350 0    50   ~ 0
SWCLK
Wire Wire Line
	6850 1450 6600 1450
$Comp
L power:GND #PWR0110
U 1 1 611303ED
P 6600 1450
F 0 "#PWR0110" H 6600 1200 50  0001 C CNN
F 1 "GND" V 6605 1322 50  0000 R CNN
F 2 "" H 6600 1450 50  0001 C CNN
F 3 "" H 6600 1450 50  0001 C CNN
	1    6600 1450
	0    1    1    0   
$EndComp
Wire Wire Line
	6850 1550 6600 1550
Text Label 6600 1550 0    50   ~ 0
SWDIO
Wire Wire Line
	6850 1650 6600 1650
Text Label 6600 1650 0    50   ~ 0
NRST
Wire Wire Line
	2050 1450 1600 1450
Text Label 1600 1450 0    50   ~ 0
NRST
Wire Wire Line
	3050 2750 3350 2750
Text Label 3350 2750 2    50   ~ 0
SWDIO
Wire Wire Line
	3050 2850 3350 2850
Text Label 3350 2850 2    50   ~ 0
SWCLK
NoConn ~ 6850 1750
Wire Wire Line
	4250 2850 4500 2850
Wire Wire Line
	4250 2950 4500 2950
Text Label 4500 2950 2    50   ~ 0
DM
Text Label 4500 2850 2    50   ~ 0
DP
Wire Wire Line
	3050 2550 3350 2550
Text Label 3350 2550 2    50   ~ 0
DM
Wire Wire Line
	3050 2650 3350 2650
Text Label 3350 2650 2    50   ~ 0
DP
NoConn ~ 2050 1950
NoConn ~ 2050 2050
NoConn ~ 2050 2250
NoConn ~ 2050 2750
NoConn ~ 2050 2850
NoConn ~ 2050 2950
NoConn ~ 3050 2950
NoConn ~ 3050 2450
NoConn ~ 3050 2350
NoConn ~ 3050 2150
NoConn ~ 3050 2050
NoConn ~ 3050 1950
NoConn ~ 3050 1850
NoConn ~ 3050 1750
NoConn ~ 3050 1650
NoConn ~ 3050 1550
NoConn ~ 3050 1450
$Comp
L Connector:USB_B J1
U 1 1 6118D90A
P 3950 2850
F 0 "J1" H 4007 3317 50  0000 C CNN
F 1 "USB_B" H 4007 3226 50  0000 C CNN
F 2 "Connector_USB:USB_B_OST_USB-B1HSxx_Horizontal" H 4100 2800 50  0001 C CNN
F 3 "~" H 4100 2800 50  0001 C CNN
	1    3950 2850
	1    0    0    -1  
$EndComp
$EndSCHEMATC
