(export (version D)
  (design
    (source /Users/russruss/proj/bemaniadapt/hardware/badapt/badapt.sch)
    (date "Tuesday, August 03, 2021 at 11:18:51 AM")
    (tool "Eeschema (5.1.10-1-10_14)")
    (sheet (number 1) (name /) (tstamps /)
      (title_block
        (title)
        (company)
        (rev)
        (date)
        (source badapt.sch)
        (comment (number 1) (value ""))
        (comment (number 2) (value ""))
        (comment (number 3) (value ""))
        (comment (number 4) (value "")))))
  (components
    (comp (ref U1)
      (value STM32F042K6Tx)
      (footprint Package_QFP:LQFP-32_7x7mm_P0.8mm)
      (datasheet http://www.st.com/st-web-ui/static/active/en/resource/technical/document/datasheet/DM00105814.pdf)
      (libsource (lib MCU_ST_STM32F0) (part STM32F042K6Tx) (description "ARM Cortex-M0 MCU, 32KB flash, 6KB RAM, 48MHz, 2-3.6V, 26 GPIO, LQFP-32"))
      (sheetpath (names /) (tstamps /))
      (tstamp 6108BEBF))
    (comp (ref C5)
      (value 0.1uF)
      (footprint Capacitor_SMD:C_0603_1608Metric)
      (datasheet ~)
      (libsource (lib Device) (part C) (description "Unpolarized capacitor"))
      (sheetpath (names /) (tstamps /))
      (tstamp 6109160C))
    (comp (ref C2)
      (value 0.1uF)
      (footprint Capacitor_SMD:C_0603_1608Metric)
      (datasheet ~)
      (libsource (lib Device) (part C) (description "Unpolarized capacitor"))
      (sheetpath (names /) (tstamps /))
      (tstamp 61094738))
    (comp (ref C3)
      (value 0.1uF)
      (footprint Capacitor_SMD:C_0603_1608Metric)
      (datasheet ~)
      (libsource (lib Device) (part C) (description "Unpolarized capacitor"))
      (sheetpath (names /) (tstamps /))
      (tstamp 61094A97))
    (comp (ref C4)
      (value 4.7uF)
      (footprint Capacitor_SMD:C_0603_1608Metric)
      (datasheet ~)
      (libsource (lib Device) (part C) (description "Unpolarized capacitor"))
      (sheetpath (names /) (tstamps /))
      (tstamp 61094ECF))
    (comp (ref C1)
      (value 0.1uF)
      (footprint Capacitor_SMD:C_0603_1608Metric)
      (datasheet ~)
      (libsource (lib Device) (part C) (description "Unpolarized capacitor"))
      (sheetpath (names /) (tstamps /))
      (tstamp 610941CD))
    (comp (ref U2)
      (value LM3480-3.3)
      (footprint Package_TO_SOT_SMD:SOT-23)
      (datasheet http://www.ti.com/lit/ds/symlink/lm3480.pdf)
      (libsource (lib Regulator_Linear) (part LM3480-3.3) (description "100mA, Quasi Low Dropout Voltage Regulator, 3.3V positive fixed output, SOT-23 package"))
      (sheetpath (names /) (tstamps /))
      (tstamp 61090D90))
    (comp (ref J2)
      (value Conn_01x09)
      (footprint badapt:ps_controller_conn)
      (datasheet ~)
      (libsource (lib Connector_Generic) (part Conn_01x09) (description "Generic connector, single row, 01x09, script generated (kicad-library-utils/schlib/autogen/connector/)"))
      (sheetpath (names /) (tstamps /))
      (tstamp 610A6269))
    (comp (ref R1)
      (value 1k)
      (footprint Resistor_SMD:R_0603_1608Metric)
      (datasheet ~)
      (libsource (lib Device) (part R_US) (description "Resistor, US symbol"))
      (sheetpath (names /) (tstamps /))
      (tstamp 610AA231))
    (comp (ref J3)
      (value Conn_01x06)
      (footprint Connector_PinSocket_2.54mm:PinSocket_1x06_P2.54mm_Vertical)
      (datasheet ~)
      (libsource (lib Connector_Generic) (part Conn_01x06) (description "Generic connector, single row, 01x06, script generated (kicad-library-utils/schlib/autogen/connector/)"))
      (sheetpath (names /) (tstamps /))
      (tstamp 6112C362))
    (comp (ref J1)
      (value USB_B)
      (footprint Connector_USB:USB_B_OST_USB-B1HSxx_Horizontal)
      (datasheet ~)
      (libsource (lib Connector) (part USB_B) (description "USB Type B connector"))
      (sheetpath (names /) (tstamps /))
      (tstamp 6118D90A)))
  (libparts
    (libpart (lib Connector) (part USB_B)
      (description "USB Type B connector")
      (docs " ~")
      (footprints
        (fp USB*))
      (fields
        (field (name Reference) J)
        (field (name Value) USB_B))
      (pins
        (pin (num 1) (name VBUS) (type power_out))
        (pin (num 2) (name D-) (type BiDi))
        (pin (num 3) (name D+) (type BiDi))
        (pin (num 4) (name GND) (type power_out))
        (pin (num 5) (name Shield) (type passive))))
    (libpart (lib Connector_Generic) (part Conn_01x06)
      (description "Generic connector, single row, 01x06, script generated (kicad-library-utils/schlib/autogen/connector/)")
      (docs ~)
      (footprints
        (fp Connector*:*_1x??_*))
      (fields
        (field (name Reference) J)
        (field (name Value) Conn_01x06))
      (pins
        (pin (num 1) (name Pin_1) (type passive))
        (pin (num 2) (name Pin_2) (type passive))
        (pin (num 3) (name Pin_3) (type passive))
        (pin (num 4) (name Pin_4) (type passive))
        (pin (num 5) (name Pin_5) (type passive))
        (pin (num 6) (name Pin_6) (type passive))))
    (libpart (lib Connector_Generic) (part Conn_01x09)
      (description "Generic connector, single row, 01x09, script generated (kicad-library-utils/schlib/autogen/connector/)")
      (docs ~)
      (footprints
        (fp Connector*:*_1x??_*))
      (fields
        (field (name Reference) J)
        (field (name Value) Conn_01x09))
      (pins
        (pin (num 1) (name Pin_1) (type passive))
        (pin (num 2) (name Pin_2) (type passive))
        (pin (num 3) (name Pin_3) (type passive))
        (pin (num 4) (name Pin_4) (type passive))
        (pin (num 5) (name Pin_5) (type passive))
        (pin (num 6) (name Pin_6) (type passive))
        (pin (num 7) (name Pin_7) (type passive))
        (pin (num 8) (name Pin_8) (type passive))
        (pin (num 9) (name Pin_9) (type passive))))
    (libpart (lib Device) (part C)
      (description "Unpolarized capacitor")
      (docs ~)
      (footprints
        (fp C_*))
      (fields
        (field (name Reference) C)
        (field (name Value) C))
      (pins
        (pin (num 1) (name ~) (type passive))
        (pin (num 2) (name ~) (type passive))))
    (libpart (lib Device) (part R_US)
      (description "Resistor, US symbol")
      (docs ~)
      (footprints
        (fp R_*))
      (fields
        (field (name Reference) R)
        (field (name Value) R_US))
      (pins
        (pin (num 1) (name ~) (type passive))
        (pin (num 2) (name ~) (type passive))))
    (libpart (lib MCU_ST_STM32F0) (part STM32F042K4Tx)
      (aliases
        (alias STM32F042K6Tx))
      (description "ARM Cortex-M0 MCU, 16KB flash, 6KB RAM, 48MHz, 2-3.6V, 26 GPIO, LQFP-32")
      (docs http://www.st.com/st-web-ui/static/active/en/resource/technical/document/datasheet/DM00105814.pdf)
      (footprints
        (fp LQFP*7x7mm*P0.8mm*))
      (fields
        (field (name Reference) U)
        (field (name Value) STM32F042K4Tx)
        (field (name Footprint) Package_QFP:LQFP-32_7x7mm_P0.8mm))
      (pins
        (pin (num 1) (name VDD) (type power_in))
        (pin (num 2) (name PF0) (type input))
        (pin (num 3) (name PF1) (type input))
        (pin (num 4) (name NRST) (type input))
        (pin (num 5) (name VDDA) (type power_in))
        (pin (num 6) (name PA0) (type BiDi))
        (pin (num 7) (name PA1) (type BiDi))
        (pin (num 8) (name PA2) (type BiDi))
        (pin (num 9) (name PA3) (type BiDi))
        (pin (num 10) (name PA4) (type BiDi))
        (pin (num 11) (name PA5) (type BiDi))
        (pin (num 12) (name PA6) (type BiDi))
        (pin (num 13) (name PA7) (type BiDi))
        (pin (num 14) (name PB0) (type BiDi))
        (pin (num 15) (name PB1) (type BiDi))
        (pin (num 16) (name VSS) (type power_in))
        (pin (num 17) (name VDDIO2) (type power_in))
        (pin (num 18) (name PA8) (type BiDi))
        (pin (num 19) (name PA9) (type BiDi))
        (pin (num 20) (name PA10) (type BiDi))
        (pin (num 21) (name PA11) (type BiDi))
        (pin (num 22) (name PA12) (type BiDi))
        (pin (num 23) (name PA13) (type BiDi))
        (pin (num 24) (name PA14) (type BiDi))
        (pin (num 25) (name PA15) (type BiDi))
        (pin (num 26) (name PB3) (type BiDi))
        (pin (num 27) (name PB4) (type BiDi))
        (pin (num 28) (name PB5) (type BiDi))
        (pin (num 29) (name PB6) (type BiDi))
        (pin (num 30) (name PB7) (type BiDi))
        (pin (num 31) (name PB8) (type BiDi))
        (pin (num 32) (name VSSA) (type power_in))))
    (libpart (lib Regulator_Linear) (part LM3480-3.3)
      (aliases
        (alias LM3480-5.0)
        (alias LM3480-12)
        (alias LM3480-15))
      (description "100mA, Quasi Low Dropout Voltage Regulator, 3.3V positive fixed output, SOT-23 package")
      (docs http://www.ti.com/lit/ds/symlink/lm3480.pdf)
      (footprints
        (fp SOT?23*))
      (fields
        (field (name Reference) U)
        (field (name Value) LM3480-3.3)
        (field (name Footprint) Package_TO_SOT_SMD:SOT-23))
      (pins
        (pin (num 1) (name VO) (type power_out))
        (pin (num 2) (name VI) (type power_in))
        (pin (num 3) (name GND) (type power_in)))))
  (libraries
    (library (logical Connector)
      (uri "/Library/Application Support/kicad/library/Connector.lib"))
    (library (logical Connector_Generic)
      (uri "/Library/Application Support/kicad/library/Connector_Generic.lib"))
    (library (logical Device)
      (uri "/Library/Application Support/kicad/library/Device.lib"))
    (library (logical MCU_ST_STM32F0)
      (uri "/Library/Application Support/kicad/library/MCU_ST_STM32F0.lib"))
    (library (logical Regulator_Linear)
      (uri "/Library/Application Support/kicad/library/Regulator_Linear.lib")))
  (nets
    (net (code 1) (name "Net-(U1-Pad10)")
      (node (ref U1) (pin 10)))
    (net (code 2) (name "Net-(U1-Pad11)")
      (node (ref U1) (pin 11)))
    (net (code 3) (name "Net-(U1-Pad12)")
      (node (ref U1) (pin 12)))
    (net (code 4) (name "Net-(U1-Pad13)")
      (node (ref U1) (pin 13)))
    (net (code 5) (name "Net-(U1-Pad14)")
      (node (ref U1) (pin 14)))
    (net (code 6) (name "Net-(U1-Pad19)")
      (node (ref U1) (pin 19)))
    (net (code 7) (name "Net-(U1-Pad2)")
      (node (ref U1) (pin 2)))
    (net (code 8) (name "Net-(U1-Pad20)")
      (node (ref U1) (pin 20)))
    (net (code 9) (name "Net-(U1-Pad25)")
      (node (ref U1) (pin 25)))
    (net (code 10) (name "Net-(U1-Pad29)")
      (node (ref U1) (pin 29)))
    (net (code 11) (name "Net-(U1-Pad3)")
      (node (ref U1) (pin 3)))
    (net (code 12) (name "Net-(U1-Pad30)")
      (node (ref U1) (pin 30)))
    (net (code 13) (name "Net-(U1-Pad31)")
      (node (ref U1) (pin 31)))
    (net (code 14) (name GND)
      (node (ref U1) (pin 32))
      (node (ref C1) (pin 2))
      (node (ref C4) (pin 2))
      (node (ref C5) (pin 2))
      (node (ref U1) (pin 16))
      (node (ref J1) (pin 4))
      (node (ref J2) (pin 4))
      (node (ref J3) (pin 3))
      (node (ref U2) (pin 3))
      (node (ref C2) (pin 2))
      (node (ref C3) (pin 2)))
    (net (code 15) (name "Net-(U1-Pad6)")
      (node (ref U1) (pin 6)))
    (net (code 16) (name "Net-(U1-Pad7)")
      (node (ref U1) (pin 7)))
    (net (code 17) (name "Net-(U1-Pad8)")
      (node (ref U1) (pin 8)))
    (net (code 18) (name "Net-(U1-Pad9)")
      (node (ref U1) (pin 9)))
    (net (code 19) (name "Net-(J1-Pad5)")
      (node (ref J1) (pin 5)))
    (net (code 21) (name +3V3)
      (node (ref C1) (pin 1))
      (node (ref C4) (pin 1))
      (node (ref C3) (pin 1))
      (node (ref C2) (pin 1))
      (node (ref U2) (pin 1))
      (node (ref U1) (pin 1))
      (node (ref J2) (pin 5))
      (node (ref U1) (pin 17))
      (node (ref R1) (pin 1))
      (node (ref U1) (pin 5))
      (node (ref C5) (pin 1)))
    (net (code 22) (name "Net-(J1-Pad1)")
      (node (ref J1) (pin 1))
      (node (ref U2) (pin 2)))
    (net (code 23) (name /COMMAND)
      (node (ref U1) (pin 28))
      (node (ref J2) (pin 2)))
    (net (code 24) (name "Net-(J2-Pad3)")
      (node (ref J2) (pin 3)))
    (net (code 25) (name /CS)
      (node (ref U1) (pin 18))
      (node (ref J2) (pin 6)))
    (net (code 26) (name /CLK)
      (node (ref J2) (pin 7))
      (node (ref U1) (pin 26)))
    (net (code 27) (name "Net-(J2-Pad8)")
      (node (ref J2) (pin 8)))
    (net (code 28) (name /ACK)
      (node (ref J2) (pin 9))
      (node (ref U1) (pin 15)))
    (net (code 29) (name /DATA)
      (node (ref U1) (pin 27))
      (node (ref R1) (pin 2))
      (node (ref J2) (pin 1)))
    (net (code 30) (name "Net-(J3-Pad1)")
      (node (ref J3) (pin 1)))
    (net (code 31) (name /SWCLK)
      (node (ref J3) (pin 2))
      (node (ref U1) (pin 24)))
    (net (code 32) (name /SWDIO)
      (node (ref U1) (pin 23))
      (node (ref J3) (pin 4)))
    (net (code 33) (name /NRST)
      (node (ref J3) (pin 5))
      (node (ref U1) (pin 4)))
    (net (code 34) (name "Net-(J3-Pad6)")
      (node (ref J3) (pin 6)))
    (net (code 35) (name /DP)
      (node (ref U1) (pin 22))
      (node (ref J1) (pin 3)))
    (net (code 36) (name /DM)
      (node (ref U1) (pin 21))
      (node (ref J1) (pin 2)))))